paper
…
# A tibble: 1,200 × 21
   exposure        sharing anti_fake_news content_filt human_int ethic   alg_lit
   <dbl+lbl>       <dbl+l>          <dbl> <dbl+lbl>    <dbl+lbl> <dbl+l>   <dbl>
 1     3 [Al meno… 0 [Nev…           2    5 [Completa… 5 [Compl… 5 [Com…       1
 2 NA(9) [NS-NR]   0 [Nev…           1    1 [Nada con… 1 [Nada … 1 [Nad…       0
 3     1 [Nunca o… 0 [Nev…           1    1 [Nada con… 1 [Nada … 1 [Nad…       0
 4     1 [Nunca o… 1 [Hav…           2.33 1 [Nada con… 1 [Nada … 1 [Nad…       1
 5     2 [Dos o t… 0 [Nev…           2    1 [Nada con… 1 [Nada … 1 [Nad…       0
 6     4 [Todos l… 0 [Nev…           3.33 5 [Completa… 5 [Compl… 5 [Com…       1
 7     1 [Nunca o… 0 [Nev…           1    5 [Completa… 5 [Compl… 5 [Com…       1
 8     4 [Todos l… 0 [Nev…           1    5 [Completa… 5 [Compl… 5 [Com…       1
 9     3 [Al meno… 0 [Nev…           1.33 3 [3]        5 [Compl… 4 [4]         0
10     1 [Nunca o… 0 [Nev…           1    4 [4]        3 [3]     4 [4]        NA
# ℹ 1,190 more rows
# ℹ 14 more variables: alg_aware <dbl>, fb <dbl+lbl>, ig <dbl+lbl>,
#   wsp <dbl+lbl>, yt <dbl+lbl>, tw <dbl+lbl>, tiktok <dbl+lbl>, age <dbl>,
#   age_range <dbl+lbl>, gender <dbl+lbl>, educ_level <dbl+lbl>,
#   ppal_educ_level <dbl+lbl>, ppal_ocupation <dbl+lbl>, rm <dbl+lbl>

# A tibble: 2,265 × 38
   exposure         sharing vulnerability info_type obj_know obj_know3 subj_know
   <dbl+lbl>        <dbl+l> <dbl+lbl>     <dbl+lbl>    <dbl>     <dbl>     <dbl>
 1 4 [Casi siempre] 1 [Hav… 4 [De acuerd… 3 [Infor…        2         2      4   
 2 4 [Casi siempre] 1 [Hav… 4 [De acuerd… 1 [Uninf…        0         3      3.33
 3 4 [Casi siempre] 0 [Nev… 4 [De acuerd… 1 [Uninf…        0         1      5   
 4 3 [A veces]      0 [Nev… 4 [De acuerd… 3 [Infor…        6         6      3.83
 5 3 [A veces]      0 [Nev… 4 [De acuerd… 3 [Infor…        2         3      3.25
 6 3 [A veces]      0 [Nev… 4 [De acuerd… 2 [Misin…       -1         2      3.60
 7 5 [Siempre]      1 [Hav… 3 [Ni de acu… 3 [Infor…        1         2      3.33
 8 2 [Casi nunca]   0 [Nev… 4 [De acuerd… 3 [Infor…        1         1      4   
 9 4 [Casi siempre] 1 [Hav… 5 [Muy de ac… 3 [Infor…        3         4      5   
10 4 [Casi siempre] 1 [Hav… 4 [De acuerd… 1 [Uninf…        0         2      3   
# ℹ 2,255 more rows
# ℹ 31 more variables: subj_know_def <dbl>, content_filt <dbl+lbl>,
#   human_int <dbl+lbl>, ethic <dbl+lbl>, alg_lit <dbl>, alg_aware <dbl>,
#   counteract_algorithm <dbl>, fb <dbl+lbl>, ig <dbl+lbl>, wsp <dbl+lbl>,
#   yt <dbl+lbl>, tw <dbl+lbl>, tiktok <dbl+lbl>, p60 <dbl+lbl>, p61 <dbl+lbl>,
#   p62 <dbl+lbl>, p63 <dbl+lbl>, p64 <dbl+lbl>, age <dbl>,
#   age_range <dbl+lbl>, gender <dbl+lbl>, educ_level <dbl+lbl>, …
…
